…
    ## Source: local data frame [81 x 7]
    ## Groups: Population [3]
    ## 
    ## # A tibble: 81 x 7
    ##          Date CalDay       Population total.by.date total.per.cap
    ##        <date>  <chr>           <fctr>         <dbl>         <dbl>
    ##  1 2015-06-19    170   Dabob Bay (HC)      29000.00     308.51064
    ##  2 2015-06-19    170 Fidalgo Bay (NF)          0.00       0.00000
    ##  3 2015-06-19    170  Oyster Bay (SS)      81100.00     819.19192
    ##  4 2015-06-22    173   Dabob Bay (HC)      54600.00     580.85106
    ##  5 2015-06-22    173 Fidalgo Bay (NF)          0.00       0.00000
    ##  6 2015-06-22    173  Oyster Bay (SS)     273487.50    2762.50000
    ##  7 2015-06-24    175   Dabob Bay (HC)      42888.00     456.25532
    ##  8 2015-06-24    175 Fidalgo Bay (NF)      69765.62     704.70328
    ##  9 2015-06-24    175  Oyster Bay (SS)       5000.00      50.50505
    ## 10 2015-06-25    176   Dabob Bay (HC)     126874.75    1349.73138
    ## # ... with 71 more rows, and 2 more variables: cum.total <dbl>,
    ## #   cum.percap <dbl>
…
